M48
; DRILL file {KiCad 7.0.2} date Tue Dec  5 01:54:12 2023
; FORMAT={-:-/ absolute / inch / decimal}
; #@! TF.CreationDate,2023-12-05T01:54:12-08:00
; #@! TF.GenerationSoftware,Kicad,Pcbnew,7.0.2
; #@! TF.FileFunction,NonPlated,1,2,NPTH
FMAT,2
INCH
; #@! TA.AperFunction,NonPlated,NPTH,ComponentDrill
T1C0.1260
%
G90
G05
T1
X5.2047Y-1.5886
X5.2047Y-3.2047
X6.7795Y-1.5945
X6.7795Y-3.2106
T0
M30
