%TF.GenerationSoftware,KiCad,Pcbnew,7.0.2*%
%TF.CreationDate,2023-12-05T01:54:10-08:00*%
%TF.ProjectId,driver-1A,64726976-6572-42d3-9141-2e6b69636164,rev?*%
%TF.SameCoordinates,Original*%
%TF.FileFunction,Soldermask,Top*%
%TF.FilePolarity,Negative*%
%FSLAX46Y46*%
G04 Gerber Fmt 4.6, Leading zero omitted, Abs format (unit mm)*
G04 Created by KiCad (PCBNEW 7.0.2) date 2023-12-05 01:54:10*
%MOMM*%
%LPD*%
G01*
G04 APERTURE LIST*
G04 Aperture macros list*
%AMRoundRect*
0 Rectangle with rounded corners*
0 $1 Rounding radius*
0 $2 $3 $4 $5 $6 $7 $8 $9 X,Y pos of 4 corners*
0 Add a 4 corners polygon primitive as box body*
4,1,4,$2,$3,$4,$5,$6,$7,$8,$9,$2,$3,0*
0 Add four circle primitives for the rounded corners*
1,1,$1+$1,$2,$3*
1,1,$1+$1,$4,$5*
1,1,$1+$1,$6,$7*
1,1,$1+$1,$8,$9*
0 Add four rect primitives between the rounded corners*
20,1,$1+$1,$2,$3,$4,$5,0*
20,1,$1+$1,$4,$5,$6,$7,0*
20,1,$1+$1,$6,$7,$8,$9,0*
20,1,$1+$1,$8,$9,$2,$3,0*%
G04 Aperture macros list end*
%ADD10C,3.200000*%
%ADD11RoundRect,0.250002X1.699998X1.699998X-1.699998X1.699998X-1.699998X-1.699998X1.699998X-1.699998X0*%
%ADD12C,3.900000*%
%ADD13RoundRect,0.250000X0.600000X0.750000X-0.600000X0.750000X-0.600000X-0.750000X0.600000X-0.750000X0*%
%ADD14O,1.700000X2.000000*%
%ADD15RoundRect,0.150000X-0.512500X-0.150000X0.512500X-0.150000X0.512500X0.150000X-0.512500X0.150000X0*%
%ADD16RoundRect,0.250000X0.625000X-0.312500X0.625000X0.312500X-0.625000X0.312500X-0.625000X-0.312500X0*%
%ADD17RoundRect,0.200000X-0.200000X-0.275000X0.200000X-0.275000X0.200000X0.275000X-0.200000X0.275000X0*%
%ADD18RoundRect,0.200000X0.200000X0.275000X-0.200000X0.275000X-0.200000X-0.275000X0.200000X-0.275000X0*%
%ADD19R,6.600000X2.850000*%
%ADD20RoundRect,0.250000X-0.725000X0.600000X-0.725000X-0.600000X0.725000X-0.600000X0.725000X0.600000X0*%
%ADD21O,1.950000X1.700000*%
%ADD22RoundRect,0.225000X0.250000X-0.225000X0.250000X0.225000X-0.250000X0.225000X-0.250000X-0.225000X0*%
%ADD23RoundRect,0.250000X0.325000X0.650000X-0.325000X0.650000X-0.325000X-0.650000X0.325000X-0.650000X0*%
%ADD24RoundRect,0.225000X-0.225000X-0.250000X0.225000X-0.250000X0.225000X0.250000X-0.225000X0.250000X0*%
%ADD25RoundRect,0.250000X-0.325000X-0.650000X0.325000X-0.650000X0.325000X0.650000X-0.325000X0.650000X0*%
%ADD26RoundRect,0.225000X0.225000X0.250000X-0.225000X0.250000X-0.225000X-0.250000X0.225000X-0.250000X0*%
G04 APERTURE END LIST*
D10*
%TO.C,H4*%
X172200000Y-81550000D03*
%TD*%
%TO.C,H3*%
X132200000Y-81400000D03*
%TD*%
%TO.C,H2*%
X172200000Y-40500000D03*
%TD*%
%TO.C,H1*%
X132200000Y-40350000D03*
%TD*%
D11*
%TO.C,J6*%
X186200000Y-75500000D03*
D12*
X178400000Y-75500000D03*
%TD*%
D13*
%TO.C,J4*%
X181125000Y-46100000D03*
D14*
X178625000Y-46100000D03*
%TD*%
D13*
%TO.C,J3*%
X143200000Y-46100000D03*
D14*
X140700000Y-46100000D03*
%TD*%
D13*
%TO.C,J2*%
X162200000Y-46100000D03*
D14*
X159700000Y-46100000D03*
%TD*%
%TO.C,J1*%
X121700000Y-46100000D03*
D13*
X124200000Y-46100000D03*
%TD*%
D15*
%TO.C,U4*%
X181087500Y-58850000D03*
X181087500Y-59800000D03*
X181087500Y-60750000D03*
X183362500Y-60750000D03*
X183362500Y-59800000D03*
X183362500Y-58850000D03*
%TD*%
%TO.C,U3*%
X143162500Y-58850000D03*
X143162500Y-59800000D03*
X143162500Y-60750000D03*
X145437500Y-60750000D03*
X145437500Y-59800000D03*
X145437500Y-58850000D03*
%TD*%
%TO.C,U2*%
X162162500Y-58850000D03*
X162162500Y-59800000D03*
X162162500Y-60750000D03*
X164437500Y-60750000D03*
X164437500Y-59800000D03*
X164437500Y-58850000D03*
%TD*%
%TO.C,U1*%
X126437500Y-58850000D03*
X126437500Y-59800000D03*
X126437500Y-60750000D03*
X124162500Y-60750000D03*
X124162500Y-59800000D03*
X124162500Y-58850000D03*
%TD*%
D16*
%TO.C,R16*%
X185425000Y-53825000D03*
X185425000Y-50900000D03*
%TD*%
%TO.C,R15*%
X185425000Y-49125000D03*
X185425000Y-46200000D03*
%TD*%
D17*
%TO.C,R14*%
X186775000Y-60800000D03*
X188425000Y-60800000D03*
%TD*%
D18*
%TO.C,R13*%
X185300000Y-57200000D03*
X183650000Y-57200000D03*
%TD*%
D16*
%TO.C,R12*%
X147500000Y-53825000D03*
X147500000Y-50900000D03*
%TD*%
%TO.C,R11*%
X147500000Y-46200000D03*
X147500000Y-49125000D03*
%TD*%
D17*
%TO.C,R10*%
X148850000Y-60800000D03*
X150500000Y-60800000D03*
%TD*%
D18*
%TO.C,R9*%
X145725000Y-57200000D03*
X147375000Y-57200000D03*
%TD*%
D16*
%TO.C,R8*%
X166500000Y-53825000D03*
X166500000Y-50900000D03*
%TD*%
%TO.C,R7*%
X166500000Y-49125000D03*
X166500000Y-46200000D03*
%TD*%
D17*
%TO.C,R6*%
X167850000Y-60800000D03*
X169500000Y-60800000D03*
%TD*%
D18*
%TO.C,R5*%
X166375000Y-57200000D03*
X164725000Y-57200000D03*
%TD*%
D16*
%TO.C,R4*%
X128500000Y-50900000D03*
X128500000Y-53825000D03*
%TD*%
%TO.C,R3*%
X128500000Y-46200000D03*
X128500000Y-49125000D03*
%TD*%
D17*
%TO.C,R2*%
X131500000Y-60800000D03*
X129850000Y-60800000D03*
%TD*%
D18*
%TO.C,R1*%
X128375000Y-57200000D03*
X126725000Y-57200000D03*
%TD*%
D19*
%TO.C,L4*%
X175625000Y-59800000D03*
X175625000Y-54150000D03*
%TD*%
%TO.C,L3*%
X137700000Y-59800000D03*
X137700000Y-54150000D03*
%TD*%
%TO.C,L2*%
X156700000Y-59800000D03*
X156700000Y-54150000D03*
%TD*%
%TO.C,L1*%
X118700000Y-54150000D03*
X118700000Y-59800000D03*
%TD*%
D20*
%TO.C,J5*%
X123600000Y-71800000D03*
D21*
X123600000Y-74300000D03*
X123600000Y-76800000D03*
X123600000Y-79300000D03*
X123600000Y-81800000D03*
%TD*%
D22*
%TO.C,C20*%
X185225000Y-62350000D03*
X185225000Y-60800000D03*
%TD*%
D23*
%TO.C,C19*%
X181375000Y-51100000D03*
X178425000Y-51100000D03*
%TD*%
D24*
%TO.C,C18*%
X180875000Y-62500000D03*
X182425000Y-62500000D03*
%TD*%
D25*
%TO.C,C17*%
X179375000Y-64600000D03*
X182325000Y-64600000D03*
%TD*%
D26*
%TO.C,C16*%
X186825000Y-57200000D03*
X188375000Y-57200000D03*
%TD*%
D22*
%TO.C,C15*%
X147300000Y-62350000D03*
X147300000Y-60800000D03*
%TD*%
D23*
%TO.C,C14*%
X143450000Y-51100000D03*
X140500000Y-51100000D03*
%TD*%
D24*
%TO.C,C13*%
X142950000Y-62500000D03*
X144500000Y-62500000D03*
%TD*%
D25*
%TO.C,C12*%
X141450000Y-64600000D03*
X144400000Y-64600000D03*
%TD*%
D26*
%TO.C,C11*%
X148900000Y-57200000D03*
X150450000Y-57200000D03*
%TD*%
D22*
%TO.C,C10*%
X166300000Y-62350000D03*
X166300000Y-60800000D03*
%TD*%
D23*
%TO.C,C9*%
X162450000Y-51100000D03*
X159500000Y-51100000D03*
%TD*%
D24*
%TO.C,C8*%
X161950000Y-62500000D03*
X163500000Y-62500000D03*
%TD*%
D25*
%TO.C,C7*%
X160450000Y-64600000D03*
X163400000Y-64600000D03*
%TD*%
D26*
%TO.C,C6*%
X167900000Y-57200000D03*
X169450000Y-57200000D03*
%TD*%
D22*
%TO.C,C5*%
X128300000Y-60800000D03*
X128300000Y-62350000D03*
%TD*%
D23*
%TO.C,C4*%
X121500000Y-51100000D03*
X124450000Y-51100000D03*
%TD*%
D26*
%TO.C,C3*%
X131450000Y-57200000D03*
X129900000Y-57200000D03*
%TD*%
D24*
%TO.C,C2*%
X125500000Y-62500000D03*
X123950000Y-62500000D03*
%TD*%
D25*
%TO.C,C1*%
X125400000Y-64600000D03*
X122450000Y-64600000D03*
%TD*%
M02*
