%TF.GenerationSoftware,KiCad,Pcbnew,7.0.2*%
%TF.CreationDate,2023-12-05T01:54:10-08:00*%
%TF.ProjectId,driver-1A,64726976-6572-42d3-9141-2e6b69636164,rev?*%
%TF.SameCoordinates,Original*%
%TF.FileFunction,Profile,NP*%
%FSLAX46Y46*%
G04 Gerber Fmt 4.6, Leading zero omitted, Abs format (unit mm)*
G04 Created by KiCad (PCBNEW 7.0.2) date 2023-12-05 01:54:10*
%MOMM*%
%LPD*%
G01*
G04 APERTURE LIST*
%TA.AperFunction,Profile*%
%ADD10C,0.100000*%
%TD*%
G04 APERTURE END LIST*
D10*
X187200000Y-84900000D02*
X117200000Y-84900000D01*
X190200000Y-39900000D02*
X190200000Y-81900000D01*
X117200000Y-36900000D02*
X187200000Y-36900000D01*
X114200000Y-81900000D02*
X114200000Y-39900000D01*
X114200000Y-81900000D02*
G75*
G03*
X117200000Y-84900000I3000001J1D01*
G01*
X117200000Y-36900000D02*
G75*
G03*
X114200000Y-39900000I1J-3000001D01*
G01*
X190200000Y-39900000D02*
G75*
G03*
X187200000Y-36900000I-3000001J-1D01*
G01*
X187200000Y-84900000D02*
G75*
G03*
X190200000Y-81900000I0J3000000D01*
G01*
M02*
