%TF.GenerationSoftware,KiCad,Pcbnew,7.0.2*%
%TF.CreationDate,2023-12-03T01:36:33-08:00*%
%TF.ProjectId,rgb-module,7267622d-6d6f-4647-956c-652e6b696361,rev?*%
%TF.SameCoordinates,Original*%
%TF.FileFunction,Soldermask,Top*%
%TF.FilePolarity,Negative*%
%FSLAX46Y46*%
G04 Gerber Fmt 4.6, Leading zero omitted, Abs format (unit mm)*
G04 Created by KiCad (PCBNEW 7.0.2) date 2023-12-03 01:36:33*
%MOMM*%
%LPD*%
G01*
G04 APERTURE LIST*
G04 Aperture macros list*
%AMRoundRect*
0 Rectangle with rounded corners*
0 $1 Rounding radius*
0 $2 $3 $4 $5 $6 $7 $8 $9 X,Y pos of 4 corners*
0 Add a 4 corners polygon primitive as box body*
4,1,4,$2,$3,$4,$5,$6,$7,$8,$9,$2,$3,0*
0 Add four circle primitives for the rounded corners*
1,1,$1+$1,$2,$3*
1,1,$1+$1,$4,$5*
1,1,$1+$1,$6,$7*
1,1,$1+$1,$8,$9*
0 Add four rect primitives between the rounded corners*
20,1,$1+$1,$2,$3,$4,$5,0*
20,1,$1+$1,$4,$5,$6,$7,0*
20,1,$1+$1,$6,$7,$8,$9,0*
20,1,$1+$1,$8,$9,$2,$3,0*%
G04 Aperture macros list end*
%ADD10C,3.200000*%
%ADD11RoundRect,0.250000X0.353553X-0.707107X0.707107X-0.353553X-0.353553X0.707107X-0.707107X0.353553X0*%
%ADD12RoundRect,0.250000X0.707107X0.353553X0.353553X0.707107X-0.707107X-0.353553X-0.353553X-0.707107X0*%
%ADD13R,0.850000X0.850000*%
%ADD14R,0.850000X0.950000*%
%ADD15R,3.300000X4.500000*%
G04 APERTURE END LIST*
D10*
%TO.C,H7*%
X122200000Y-82270000D03*
%TD*%
%TO.C,H3*%
X118900000Y-101900000D03*
%TD*%
%TO.C,H1*%
X118900000Y-62400000D03*
%TD*%
D11*
%TO.C,J5*%
X154800000Y-90400000D03*
%TD*%
%TO.C,J2*%
X121400000Y-75500000D03*
%TD*%
D10*
%TO.C,H8*%
X155000000Y-82270000D03*
%TD*%
D12*
%TO.C,J8*%
X154500000Y-74400000D03*
%TD*%
D13*
%TO.C,D1*%
X136045000Y-80425000D03*
D14*
X136045000Y-81645000D03*
X136045000Y-82895000D03*
D13*
X136045000Y-84115000D03*
X140895000Y-84115000D03*
D14*
X140895000Y-82895000D03*
X140895000Y-81645000D03*
D13*
X140895000Y-80425000D03*
D15*
X138470000Y-82270000D03*
%TD*%
D12*
%TO.C,J4*%
X122500000Y-90300000D03*
%TD*%
D10*
%TO.C,H5*%
X138470000Y-65700000D03*
%TD*%
D11*
%TO.C,J1*%
X122400000Y-74500000D03*
%TD*%
D10*
%TO.C,H4*%
X158300000Y-101900000D03*
%TD*%
D12*
%TO.C,J7*%
X155500000Y-75400000D03*
%TD*%
%TO.C,J3*%
X121500000Y-89300000D03*
%TD*%
D10*
%TO.C,H2*%
X158300000Y-62400000D03*
%TD*%
%TO.C,H6*%
X138470000Y-98600000D03*
%TD*%
D11*
%TO.C,J6*%
X155800000Y-89400000D03*
%TD*%
M02*
